…
``` r
### 열 이름 주기
colnames(reviews)<-c("review.id", "content")

### 단어 토큰으로 쪼개기 
reviews %>% 
  unnest_tokens(word, content) ->
  reviews.word

### 5. 감성사전으로 점수 매기기
inner_join(reviews.word, get_sentiments("bing"), by="word")
```

    ## # A tibble: 1,457 x 3
    ##    review.id word         sentiment
    ##        <dbl> <chr>        <chr>    
    ##  1         2 wrong        negative 
    ##  2         3 loss         negative 
    ##  3         5 recommend    positive 
    ##  4         5 successfully positive 
    ##  5         6 troublesome  negative 
    ##  6         6 loyalty      positive 
    ##  7         9 love         positive 
    ##  8         9 great        positive 
    ##  9         9 work         positive 
    ## 10        11 amazing      positive 
    ## # ... with 1,447 more rows
…
